	{ "mmMP0_SMN_C2PMSG_32", REG_MMIO, 0x0060, 0, &mmMP0_SMN_C2PMSG_32[0], sizeof(mmMP0_SMN_C2PMSG_32)/sizeof(mmMP0_SMN_C2PMSG_32[0]), 0, 0 },
	{ "mmMP0_SMN_C2PMSG_33", REG_MMIO, 0x0061, 0, &mmMP0_SMN_C2PMSG_33[0], sizeof(mmMP0_SMN_C2PMSG_33)/sizeof(mmMP0_SMN_C2PMSG_33[0]), 0, 0 },
	{ "mmMP0_SMN_C2PMSG_34", REG_MMIO, 0x0062, 0, &mmMP0_SMN_C2PMSG_34[0], sizeof(mmMP0_SMN_C2PMSG_34)/sizeof(mmMP0_SMN_C2PMSG_34[0]), 0, 0 },
	{ "mmMP0_SMN_C2PMSG_35", REG_MMIO, 0x0063, 0, &mmMP0_SMN_C2PMSG_35[0], sizeof(mmMP0_SMN_C2PMSG_35)/sizeof(mmMP0_SMN_C2PMSG_35[0]), 0, 0 },
	{ "mmMP0_SMN_C2PMSG_36", REG_MMIO, 0x0064, 0, &mmMP0_SMN_C2PMSG_36[0], sizeof(mmMP0_SMN_C2PMSG_36)/sizeof(mmMP0_SMN_C2PMSG_36[0]), 0, 0 },
	{ "mmMP0_SMN_C2PMSG_37", REG_MMIO, 0x0065, 0, &mmMP0_SMN_C2PMSG_37[0], sizeof(mmMP0_SMN_C2PMSG_37)/sizeof(mmMP0_SMN_C2PMSG_37[0]), 0, 0 },
	{ "mmMP0_SMN_C2PMSG_38", REG_MMIO, 0x0066, 0, &mmMP0_SMN_C2PMSG_38[0], sizeof(mmMP0_SMN_C2PMSG_38)/sizeof(mmMP0_SMN_C2PMSG_38[0]), 0, 0 },
	{ "mmMP0_SMN_C2PMSG_39", REG_MMIO, 0x0067, 0, &mmMP0_SMN_C2PMSG_39[0], sizeof(mmMP0_SMN_C2PMSG_39)/sizeof(mmMP0_SMN_C2PMSG_39[0]), 0, 0 },
	{ "mmMP0_SMN_C2PMSG_40", REG_MMIO, 0x0068, 0, &mmMP0_SMN_C2PMSG_40[0], sizeof(mmMP0_SMN_C2PMSG_40)/sizeof(mmMP0_SMN_C2PMSG_40[0]), 0, 0 },
	{ "mmMP0_SMN_C2PMSG_41", REG_MMIO, 0x0069, 0, &mmMP0_SMN_C2PMSG_41[0], sizeof(mmMP0_SMN_C2PMSG_41)/sizeof(mmMP0_SMN_C2PMSG_41[0]), 0, 0 },
	{ "mmMP0_SMN_C2PMSG_42", REG_MMIO, 0x006a, 0, &mmMP0_SMN_C2PMSG_42[0], sizeof(mmMP0_SMN_C2PMSG_42)/sizeof(mmMP0_SMN_C2PMSG_42[0]), 0, 0 },
	{ "mmMP0_SMN_C2PMSG_43", REG_MMIO, 0x006b, 0, &mmMP0_SMN_C2PMSG_43[0], sizeof(mmMP0_SMN_C2PMSG_43)/sizeof(mmMP0_SMN_C2PMSG_43[0]), 0, 0 },
	{ "mmMP0_SMN_C2PMSG_44", REG_MMIO, 0x006c, 0, &mmMP0_SMN_C2PMSG_44[0], sizeof(mmMP0_SMN_C2PMSG_44)/sizeof(mmMP0_SMN_C2PMSG_44[0]), 0, 0 },
	{ "mmMP0_SMN_C2PMSG_45", REG_MMIO, 0x006d, 0, &mmMP0_SMN_C2PMSG_45[0], sizeof(mmMP0_SMN_C2PMSG_45)/sizeof(mmMP0_SMN_C2PMSG_45[0]), 0, 0 },
	{ "mmMP0_SMN_C2PMSG_46", REG_MMIO, 0x006e, 0, &mmMP0_SMN_C2PMSG_46[0], sizeof(mmMP0_SMN_C2PMSG_46)/sizeof(mmMP0_SMN_C2PMSG_46[0]), 0, 0 },
	{ "mmMP0_SMN_C2PMSG_47", REG_MMIO, 0x006f, 0, &mmMP0_SMN_C2PMSG_47[0], sizeof(mmMP0_SMN_C2PMSG_47)/sizeof(mmMP0_SMN_C2PMSG_47[0]), 0, 0 },
	{ "mmMP0_SMN_C2PMSG_48", REG_MMIO, 0x0070, 0, &mmMP0_SMN_C2PMSG_48[0], sizeof(mmMP0_SMN_C2PMSG_48)/sizeof(mmMP0_SMN_C2PMSG_48[0]), 0, 0 },
	{ "mmMP0_SMN_C2PMSG_49", REG_MMIO, 0x0071, 0, &mmMP0_SMN_C2PMSG_49[0], sizeof(mmMP0_SMN_C2PMSG_49)/sizeof(mmMP0_SMN_C2PMSG_49[0]), 0, 0 },
	{ "mmMP0_SMN_C2PMSG_50", REG_MMIO, 0x0072, 0, &mmMP0_SMN_C2PMSG_50[0], sizeof(mmMP0_SMN_C2PMSG_50)/sizeof(mmMP0_SMN_C2PMSG_50[0]), 0, 0 },
	{ "mmMP0_SMN_C2PMSG_51", REG_MMIO, 0x0073, 0, &mmMP0_SMN_C2PMSG_51[0], sizeof(mmMP0_SMN_C2PMSG_51)/sizeof(mmMP0_SMN_C2PMSG_51[0]), 0, 0 },
	{ "mmMP0_SMN_C2PMSG_52", REG_MMIO, 0x0074, 0, &mmMP0_SMN_C2PMSG_52[0], sizeof(mmMP0_SMN_C2PMSG_52)/sizeof(mmMP0_SMN_C2PMSG_52[0]), 0, 0 },
	{ "mmMP0_SMN_C2PMSG_53", REG_MMIO, 0x0075, 0, &mmMP0_SMN_C2PMSG_53[0], sizeof(mmMP0_SMN_C2PMSG_53)/sizeof(mmMP0_SMN_C2PMSG_53[0]), 0, 0 },
	{ "mmMP0_SMN_C2PMSG_54", REG_MMIO, 0x0076, 0, &mmMP0_SMN_C2PMSG_54[0], sizeof(mmMP0_SMN_C2PMSG_54)/sizeof(mmMP0_SMN_C2PMSG_54[0]), 0, 0 },
	{ "mmMP0_SMN_C2PMSG_55", REG_MMIO, 0x0077, 0, &mmMP0_SMN_C2PMSG_55[0], sizeof(mmMP0_SMN_C2PMSG_55)/sizeof(mmMP0_SMN_C2PMSG_55[0]), 0, 0 },
	{ "mmMP0_SMN_C2PMSG_56", REG_MMIO, 0x0078, 0, &mmMP0_SMN_C2PMSG_56[0], sizeof(mmMP0_SMN_C2PMSG_56)/sizeof(mmMP0_SMN_C2PMSG_56[0]), 0, 0 },
	{ "mmMP0_SMN_C2PMSG_57", REG_MMIO, 0x0079, 0, &mmMP0_SMN_C2PMSG_57[0], sizeof(mmMP0_SMN_C2PMSG_57)/sizeof(mmMP0_SMN_C2PMSG_57[0]), 0, 0 },
	{ "mmMP0_SMN_C2PMSG_58", REG_MMIO, 0x007a, 0, &mmMP0_SMN_C2PMSG_58[0], sizeof(mmMP0_SMN_C2PMSG_58)/sizeof(mmMP0_SMN_C2PMSG_58[0]), 0, 0 },
	{ "mmMP0_SMN_C2PMSG_59", REG_MMIO, 0x007b, 0, &mmMP0_SMN_C2PMSG_59[0], sizeof(mmMP0_SMN_C2PMSG_59)/sizeof(mmMP0_SMN_C2PMSG_59[0]), 0, 0 },
	{ "mmMP0_SMN_C2PMSG_60", REG_MMIO, 0x007c, 0, &mmMP0_SMN_C2PMSG_60[0], sizeof(mmMP0_SMN_C2PMSG_60)/sizeof(mmMP0_SMN_C2PMSG_60[0]), 0, 0 },
	{ "mmMP0_SMN_C2PMSG_61", REG_MMIO, 0x007d, 0, &mmMP0_SMN_C2PMSG_61[0], sizeof(mmMP0_SMN_C2PMSG_61)/sizeof(mmMP0_SMN_C2PMSG_61[0]), 0, 0 },
	{ "mmMP0_SMN_C2PMSG_62", REG_MMIO, 0x007e, 0, &mmMP0_SMN_C2PMSG_62[0], sizeof(mmMP0_SMN_C2PMSG_62)/sizeof(mmMP0_SMN_C2PMSG_62[0]), 0, 0 },
	{ "mmMP0_SMN_C2PMSG_63", REG_MMIO, 0x007f, 0, &mmMP0_SMN_C2PMSG_63[0], sizeof(mmMP0_SMN_C2PMSG_63)/sizeof(mmMP0_SMN_C2PMSG_63[0]), 0, 0 },
	{ "mmMP0_SMN_C2PMSG_64", REG_MMIO, 0x0080, 0, &mmMP0_SMN_C2PMSG_64[0], sizeof(mmMP0_SMN_C2PMSG_64)/sizeof(mmMP0_SMN_C2PMSG_64[0]), 0, 0 },
	{ "mmMP0_SMN_C2PMSG_65", REG_MMIO, 0x0081, 0, &mmMP0_SMN_C2PMSG_65[0], sizeof(mmMP0_SMN_C2PMSG_65)/sizeof(mmMP0_SMN_C2PMSG_65[0]), 0, 0 },
	{ "mmMP0_SMN_C2PMSG_66", REG_MMIO, 0x0082, 0, &mmMP0_SMN_C2PMSG_66[0], sizeof(mmMP0_SMN_C2PMSG_66)/sizeof(mmMP0_SMN_C2PMSG_66[0]), 0, 0 },
	{ "mmMP0_SMN_C2PMSG_67", REG_MMIO, 0x0083, 0, &mmMP0_SMN_C2PMSG_67[0], sizeof(mmMP0_SMN_C2PMSG_67)/sizeof(mmMP0_SMN_C2PMSG_67[0]), 0, 0 },
	{ "mmMP0_SMN_C2PMSG_68", REG_MMIO, 0x0084, 0, &mmMP0_SMN_C2PMSG_68[0], sizeof(mmMP0_SMN_C2PMSG_68)/sizeof(mmMP0_SMN_C2PMSG_68[0]), 0, 0 },
	{ "mmMP0_SMN_C2PMSG_69", REG_MMIO, 0x0085, 0, &mmMP0_SMN_C2PMSG_69[0], sizeof(mmMP0_SMN_C2PMSG_69)/sizeof(mmMP0_SMN_C2PMSG_69[0]), 0, 0 },
	{ "mmMP0_SMN_C2PMSG_70", REG_MMIO, 0x0086, 0, &mmMP0_SMN_C2PMSG_70[0], sizeof(mmMP0_SMN_C2PMSG_70)/sizeof(mmMP0_SMN_C2PMSG_70[0]), 0, 0 },
	{ "mmMP0_SMN_C2PMSG_71", REG_MMIO, 0x0087, 0, &mmMP0_SMN_C2PMSG_71[0], sizeof(mmMP0_SMN_C2PMSG_71)/sizeof(mmMP0_SMN_C2PMSG_71[0]), 0, 0 },
	{ "mmMP0_SMN_C2PMSG_72", REG_MMIO, 0x0088, 0, &mmMP0_SMN_C2PMSG_72[0], sizeof(mmMP0_SMN_C2PMSG_72)/sizeof(mmMP0_SMN_C2PMSG_72[0]), 0, 0 },
	{ "mmMP0_SMN_C2PMSG_73", REG_MMIO, 0x0089, 0, &mmMP0_SMN_C2PMSG_73[0], sizeof(mmMP0_SMN_C2PMSG_73)/sizeof(mmMP0_SMN_C2PMSG_73[0]), 0, 0 },
	{ "mmMP0_SMN_C2PMSG_74", REG_MMIO, 0x008a, 0, &mmMP0_SMN_C2PMSG_74[0], sizeof(mmMP0_SMN_C2PMSG_74)/sizeof(mmMP0_SMN_C2PMSG_74[0]), 0, 0 },
	{ "mmMP0_SMN_C2PMSG_75", REG_MMIO, 0x008b, 0, &mmMP0_SMN_C2PMSG_75[0], sizeof(mmMP0_SMN_C2PMSG_75)/sizeof(mmMP0_SMN_C2PMSG_75[0]), 0, 0 },
	{ "mmMP0_SMN_C2PMSG_76", REG_MMIO, 0x008c, 0, &mmMP0_SMN_C2PMSG_76[0], sizeof(mmMP0_SMN_C2PMSG_76)/sizeof(mmMP0_SMN_C2PMSG_76[0]), 0, 0 },
	{ "mmMP0_SMN_C2PMSG_77", REG_MMIO, 0x008d, 0, &mmMP0_SMN_C2PMSG_77[0], sizeof(mmMP0_SMN_C2PMSG_77)/sizeof(mmMP0_SMN_C2PMSG_77[0]), 0, 0 },
	{ "mmMP0_SMN_C2PMSG_78", REG_MMIO, 0x008e, 0, &mmMP0_SMN_C2PMSG_78[0], sizeof(mmMP0_SMN_C2PMSG_78)/sizeof(mmMP0_SMN_C2PMSG_78[0]), 0, 0 },
	{ "mmMP0_SMN_C2PMSG_79", REG_MMIO, 0x008f, 0, &mmMP0_SMN_C2PMSG_79[0], sizeof(mmMP0_SMN_C2PMSG_79)/sizeof(mmMP0_SMN_C2PMSG_79[0]), 0, 0 },
	{ "mmMP0_SMN_C2PMSG_80", REG_MMIO, 0x0090, 0, &mmMP0_SMN_C2PMSG_80[0], sizeof(mmMP0_SMN_C2PMSG_80)/sizeof(mmMP0_SMN_C2PMSG_80[0]), 0, 0 },
	{ "mmMP0_SMN_C2PMSG_81", REG_MMIO, 0x0091, 0, &mmMP0_SMN_C2PMSG_81[0], sizeof(mmMP0_SMN_C2PMSG_81)/sizeof(mmMP0_SMN_C2PMSG_81[0]), 0, 0 },
	{ "mmMP0_SMN_C2PMSG_82", REG_MMIO, 0x0092, 0, &mmMP0_SMN_C2PMSG_82[0], sizeof(mmMP0_SMN_C2PMSG_82)/sizeof(mmMP0_SMN_C2PMSG_82[0]), 0, 0 },
	{ "mmMP0_SMN_C2PMSG_83", REG_MMIO, 0x0093, 0, &mmMP0_SMN_C2PMSG_83[0], sizeof(mmMP0_SMN_C2PMSG_83)/sizeof(mmMP0_SMN_C2PMSG_83[0]), 0, 0 },
	{ "mmMP0_SMN_C2PMSG_84", REG_MMIO, 0x0094, 0, &mmMP0_SMN_C2PMSG_84[0], sizeof(mmMP0_SMN_C2PMSG_84)/sizeof(mmMP0_SMN_C2PMSG_84[0]), 0, 0 },
	{ "mmMP0_SMN_C2PMSG_85", REG_MMIO, 0x0095, 0, &mmMP0_SMN_C2PMSG_85[0], sizeof(mmMP0_SMN_C2PMSG_85)/sizeof(mmMP0_SMN_C2PMSG_85[0]), 0, 0 },
	{ "mmMP0_SMN_C2PMSG_86", REG_MMIO, 0x0096, 0, &mmMP0_SMN_C2PMSG_86[0], sizeof(mmMP0_SMN_C2PMSG_86)/sizeof(mmMP0_SMN_C2PMSG_86[0]), 0, 0 },
	{ "mmMP0_SMN_C2PMSG_87", REG_MMIO, 0x0097, 0, &mmMP0_SMN_C2PMSG_87[0], sizeof(mmMP0_SMN_C2PMSG_87)/sizeof(mmMP0_SMN_C2PMSG_87[0]), 0, 0 },
	{ "mmMP0_SMN_C2PMSG_88", REG_MMIO, 0x0098, 0, &mmMP0_SMN_C2PMSG_88[0], sizeof(mmMP0_SMN_C2PMSG_88)/sizeof(mmMP0_SMN_C2PMSG_88[0]), 0, 0 },
	{ "mmMP0_SMN_C2PMSG_89", REG_MMIO, 0x0099, 0, &mmMP0_SMN_C2PMSG_89[0], sizeof(mmMP0_SMN_C2PMSG_89)/sizeof(mmMP0_SMN_C2PMSG_89[0]), 0, 0 },
	{ "mmMP0_SMN_C2PMSG_90", REG_MMIO, 0x009a, 0, &mmMP0_SMN_C2PMSG_90[0], sizeof(mmMP0_SMN_C2PMSG_90)/sizeof(mmMP0_SMN_C2PMSG_90[0]), 0, 0 },
	{ "mmMP0_SMN_C2PMSG_91", REG_MMIO, 0x009b, 0, &mmMP0_SMN_C2PMSG_91[0], sizeof(mmMP0_SMN_C2PMSG_91)/sizeof(mmMP0_SMN_C2PMSG_91[0]), 0, 0 },
	{ "mmMP0_SMN_C2PMSG_92", REG_MMIO, 0x009c, 0, &mmMP0_SMN_C2PMSG_92[0], sizeof(mmMP0_SMN_C2PMSG_92)/sizeof(mmMP0_SMN_C2PMSG_92[0]), 0, 0 },
	{ "mmMP0_SMN_C2PMSG_93", REG_MMIO, 0x009d, 0, &mmMP0_SMN_C2PMSG_93[0], sizeof(mmMP0_SMN_C2PMSG_93)/sizeof(mmMP0_SMN_C2PMSG_93[0]), 0, 0 },
	{ "mmMP0_SMN_C2PMSG_94", REG_MMIO, 0x009e, 0, &mmMP0_SMN_C2PMSG_94[0], sizeof(mmMP0_SMN_C2PMSG_94)/sizeof(mmMP0_SMN_C2PMSG_94[0]), 0, 0 },
	{ "mmMP0_SMN_C2PMSG_95", REG_MMIO, 0x009f, 0, &mmMP0_SMN_C2PMSG_95[0], sizeof(mmMP0_SMN_C2PMSG_95)/sizeof(mmMP0_SMN_C2PMSG_95[0]), 0, 0 },
	{ "mmMP0_SMN_C2PMSG_96", REG_MMIO, 0x00a0, 0, &mmMP0_SMN_C2PMSG_96[0], sizeof(mmMP0_SMN_C2PMSG_96)/sizeof(mmMP0_SMN_C2PMSG_96[0]), 0, 0 },
	{ "mmMP0_SMN_C2PMSG_97", REG_MMIO, 0x00a1, 0, &mmMP0_SMN_C2PMSG_97[0], sizeof(mmMP0_SMN_C2PMSG_97)/sizeof(mmMP0_SMN_C2PMSG_97[0]), 0, 0 },
	{ "mmMP0_SMN_C2PMSG_98", REG_MMIO, 0x00a2, 0, &mmMP0_SMN_C2PMSG_98[0], sizeof(mmMP0_SMN_C2PMSG_98)/sizeof(mmMP0_SMN_C2PMSG_98[0]), 0, 0 },
	{ "mmMP0_SMN_C2PMSG_99", REG_MMIO, 0x00a3, 0, &mmMP0_SMN_C2PMSG_99[0], sizeof(mmMP0_SMN_C2PMSG_99)/sizeof(mmMP0_SMN_C2PMSG_99[0]), 0, 0 },
	{ "mmMP0_SMN_C2PMSG_100", REG_MMIO, 0x00a4, 0, &mmMP0_SMN_C2PMSG_100[0], sizeof(mmMP0_SMN_C2PMSG_100)/sizeof(mmMP0_SMN_C2PMSG_100[0]), 0, 0 },
	{ "mmMP0_SMN_C2PMSG_101", REG_MMIO, 0x00a5, 0, &mmMP0_SMN_C2PMSG_101[0], sizeof(mmMP0_SMN_C2PMSG_101)/sizeof(mmMP0_SMN_C2PMSG_101[0]), 0, 0 },
	{ "mmMP0_SMN_C2PMSG_102", REG_MMIO, 0x00a6, 0, &mmMP0_SMN_C2PMSG_102[0], sizeof(mmMP0_SMN_C2PMSG_102)/sizeof(mmMP0_SMN_C2PMSG_102[0]), 0, 0 },
	{ "mmMP0_SMN_C2PMSG_103", REG_MMIO, 0x00a7, 0, &mmMP0_SMN_C2PMSG_103[0], sizeof(mmMP0_SMN_C2PMSG_103)/sizeof(mmMP0_SMN_C2PMSG_103[0]), 0, 0 },
	{ "mmMP0_SMN_IH_CREDIT", REG_MMIO, 0x00c1, 0, &mmMP0_SMN_IH_CREDIT[0], sizeof(mmMP0_SMN_IH_CREDIT)/sizeof(mmMP0_SMN_IH_CREDIT[0]), 0, 0 },
	{ "mmMP0_SMN_IH_SW_INT", REG_MMIO, 0x00c2, 0, &mmMP0_SMN_IH_SW_INT[0], sizeof(mmMP0_SMN_IH_SW_INT)/sizeof(mmMP0_SMN_IH_SW_INT[0]), 0, 0 },
	{ "mmMP0_SMN_IH_SW_INT_CTRL", REG_MMIO, 0x00c3, 0, NULL, 0, 0, 0 },
	{ "mmMP1_SMN_C2PMSG_32", REG_MMIO, 0x0260, 0, &mmMP1_SMN_C2PMSG_32[0], sizeof(mmMP1_SMN_C2PMSG_32)/sizeof(mmMP1_SMN_C2PMSG_32[0]), 0, 0 },
	{ "mmMP1_SMN_C2PMSG_33", REG_MMIO, 0x0261, 0, &mmMP1_SMN_C2PMSG_33[0], sizeof(mmMP1_SMN_C2PMSG_33)/sizeof(mmMP1_SMN_C2PMSG_33[0]), 0, 0 },
	{ "mmMP1_SMN_C2PMSG_34", REG_MMIO, 0x0262, 0, &mmMP1_SMN_C2PMSG_34[0], sizeof(mmMP1_SMN_C2PMSG_34)/sizeof(mmMP1_SMN_C2PMSG_34[0]), 0, 0 },
	{ "mmMP1_SMN_C2PMSG_35", REG_MMIO, 0x0263, 0, &mmMP1_SMN_C2PMSG_35[0], sizeof(mmMP1_SMN_C2PMSG_35)/sizeof(mmMP1_SMN_C2PMSG_35[0]), 0, 0 },
	{ "mmMP1_SMN_C2PMSG_36", REG_MMIO, 0x0264, 0, &mmMP1_SMN_C2PMSG_36[0], sizeof(mmMP1_SMN_C2PMSG_36)/sizeof(mmMP1_SMN_C2PMSG_36[0]), 0, 0 },
	{ "mmMP1_SMN_C2PMSG_37", REG_MMIO, 0x0265, 0, &mmMP1_SMN_C2PMSG_37[0], sizeof(mmMP1_SMN_C2PMSG_37)/sizeof(mmMP1_SMN_C2PMSG_37[0]), 0, 0 },
	{ "mmMP1_SMN_C2PMSG_38", REG_MMIO, 0x0266, 0, &mmMP1_SMN_C2PMSG_38[0], sizeof(mmMP1_SMN_C2PMSG_38)/sizeof(mmMP1_SMN_C2PMSG_38[0]), 0, 0 },
	{ "mmMP1_SMN_C2PMSG_39", REG_MMIO, 0x0267, 0, &mmMP1_SMN_C2PMSG_39[0], sizeof(mmMP1_SMN_C2PMSG_39)/sizeof(mmMP1_SMN_C2PMSG_39[0]), 0, 0 },
	{ "mmMP1_SMN_C2PMSG_40", REG_MMIO, 0x0268, 0, &mmMP1_SMN_C2PMSG_40[0], sizeof(mmMP1_SMN_C2PMSG_40)/sizeof(mmMP1_SMN_C2PMSG_40[0]), 0, 0 },
	{ "mmMP1_SMN_C2PMSG_41", REG_MMIO, 0x0269, 0, &mmMP1_SMN_C2PMSG_41[0], sizeof(mmMP1_SMN_C2PMSG_41)/sizeof(mmMP1_SMN_C2PMSG_41[0]), 0, 0 },
	{ "mmMP1_SMN_C2PMSG_42", REG_MMIO, 0x026a, 0, &mmMP1_SMN_C2PMSG_42[0], sizeof(mmMP1_SMN_C2PMSG_42)/sizeof(mmMP1_SMN_C2PMSG_42[0]), 0, 0 },
	{ "mmMP1_SMN_C2PMSG_43", REG_MMIO, 0x026b, 0, &mmMP1_SMN_C2PMSG_43[0], sizeof(mmMP1_SMN_C2PMSG_43)/sizeof(mmMP1_SMN_C2PMSG_43[0]), 0, 0 },
	{ "mmMP1_SMN_C2PMSG_44", REG_MMIO, 0x026c, 0, &mmMP1_SMN_C2PMSG_44[0], sizeof(mmMP1_SMN_C2PMSG_44)/sizeof(mmMP1_SMN_C2PMSG_44[0]), 0, 0 },
	{ "mmMP1_SMN_C2PMSG_45", REG_MMIO, 0x026d, 0, &mmMP1_SMN_C2PMSG_45[0], sizeof(mmMP1_SMN_C2PMSG_45)/sizeof(mmMP1_SMN_C2PMSG_45[0]), 0, 0 },
	{ "mmMP1_SMN_C2PMSG_46", REG_MMIO, 0x026e, 0, &mmMP1_SMN_C2PMSG_46[0], sizeof(mmMP1_SMN_C2PMSG_46)/sizeof(mmMP1_SMN_C2PMSG_46[0]), 0, 0 },
	{ "mmMP1_SMN_C2PMSG_47", REG_MMIO, 0x026f, 0, &mmMP1_SMN_C2PMSG_47[0], sizeof(mmMP1_SMN_C2PMSG_47)/sizeof(mmMP1_SMN_C2PMSG_47[0]), 0, 0 },
	{ "mmMP1_SMN_C2PMSG_48", REG_MMIO, 0x0270, 0, &mmMP1_SMN_C2PMSG_48[0], sizeof(mmMP1_SMN_C2PMSG_48)/sizeof(mmMP1_SMN_C2PMSG_48[0]), 0, 0 },
	{ "mmMP1_SMN_C2PMSG_49", REG_MMIO, 0x0271, 0, &mmMP1_SMN_C2PMSG_49[0], sizeof(mmMP1_SMN_C2PMSG_49)/sizeof(mmMP1_SMN_C2PMSG_49[0]), 0, 0 },
	{ "mmMP1_SMN_C2PMSG_50", REG_MMIO, 0x0272, 0, &mmMP1_SMN_C2PMSG_50[0], sizeof(mmMP1_SMN_C2PMSG_50)/sizeof(mmMP1_SMN_C2PMSG_50[0]), 0, 0 },
	{ "mmMP1_SMN_C2PMSG_51", REG_MMIO, 0x0273, 0, &mmMP1_SMN_C2PMSG_51[0], sizeof(mmMP1_SMN_C2PMSG_51)/sizeof(mmMP1_SMN_C2PMSG_51[0]), 0, 0 },
	{ "mmMP1_SMN_C2PMSG_52", REG_MMIO, 0x0274, 0, &mmMP1_SMN_C2PMSG_52[0], sizeof(mmMP1_SMN_C2PMSG_52)/sizeof(mmMP1_SMN_C2PMSG_52[0]), 0, 0 },
	{ "mmMP1_SMN_C2PMSG_53", REG_MMIO, 0x0275, 0, &mmMP1_SMN_C2PMSG_53[0], sizeof(mmMP1_SMN_C2PMSG_53)/sizeof(mmMP1_SMN_C2PMSG_53[0]), 0, 0 },
	{ "mmMP1_SMN_C2PMSG_54", REG_MMIO, 0x0276, 0, &mmMP1_SMN_C2PMSG_54[0], sizeof(mmMP1_SMN_C2PMSG_54)/sizeof(mmMP1_SMN_C2PMSG_54[0]), 0, 0 },
	{ "mmMP1_SMN_C2PMSG_55", REG_MMIO, 0x0277, 0, &mmMP1_SMN_C2PMSG_55[0], sizeof(mmMP1_SMN_C2PMSG_55)/sizeof(mmMP1_SMN_C2PMSG_55[0]), 0, 0 },
	{ "mmMP1_SMN_C2PMSG_56", REG_MMIO, 0x0278, 0, &mmMP1_SMN_C2PMSG_56[0], sizeof(mmMP1_SMN_C2PMSG_56)/sizeof(mmMP1_SMN_C2PMSG_56[0]), 0, 0 },
	{ "mmMP1_SMN_C2PMSG_57", REG_MMIO, 0x0279, 0, &mmMP1_SMN_C2PMSG_57[0], sizeof(mmMP1_SMN_C2PMSG_57)/sizeof(mmMP1_SMN_C2PMSG_57[0]), 0, 0 },
	{ "mmMP1_SMN_C2PMSG_58", REG_MMIO, 0x027a, 0, &mmMP1_SMN_C2PMSG_58[0], sizeof(mmMP1_SMN_C2PMSG_58)/sizeof(mmMP1_SMN_C2PMSG_58[0]), 0, 0 },
	{ "mmMP1_SMN_C2PMSG_59", REG_MMIO, 0x027b, 0, &mmMP1_SMN_C2PMSG_59[0], sizeof(mmMP1_SMN_C2PMSG_59)/sizeof(mmMP1_SMN_C2PMSG_59[0]), 0, 0 },
	{ "mmMP1_SMN_C2PMSG_60", REG_MMIO, 0x027c, 0, &mmMP1_SMN_C2PMSG_60[0], sizeof(mmMP1_SMN_C2PMSG_60)/sizeof(mmMP1_SMN_C2PMSG_60[0]), 0, 0 },
	{ "mmMP1_SMN_C2PMSG_61", REG_MMIO, 0x027d, 0, &mmMP1_SMN_C2PMSG_61[0], sizeof(mmMP1_SMN_C2PMSG_61)/sizeof(mmMP1_SMN_C2PMSG_61[0]), 0, 0 },
	{ "mmMP1_SMN_C2PMSG_62", REG_MMIO, 0x027e, 0, &mmMP1_SMN_C2PMSG_62[0], sizeof(mmMP1_SMN_C2PMSG_62)/sizeof(mmMP1_SMN_C2PMSG_62[0]), 0, 0 },
	{ "mmMP1_SMN_C2PMSG_63", REG_MMIO, 0x027f, 0, &mmMP1_SMN_C2PMSG_63[0], sizeof(mmMP1_SMN_C2PMSG_63)/sizeof(mmMP1_SMN_C2PMSG_63[0]), 0, 0 },
	{ "mmMP1_SMN_C2PMSG_64", REG_MMIO, 0x0280, 0, &mmMP1_SMN_C2PMSG_64[0], sizeof(mmMP1_SMN_C2PMSG_64)/sizeof(mmMP1_SMN_C2PMSG_64[0]), 0, 0 },
	{ "mmMP1_SMN_C2PMSG_65", REG_MMIO, 0x0281, 0, &mmMP1_SMN_C2PMSG_65[0], sizeof(mmMP1_SMN_C2PMSG_65)/sizeof(mmMP1_SMN_C2PMSG_65[0]), 0, 0 },
	{ "mmMP1_SMN_C2PMSG_66", REG_MMIO, 0x0282, 0, &mmMP1_SMN_C2PMSG_66[0], sizeof(mmMP1_SMN_C2PMSG_66)/sizeof(mmMP1_SMN_C2PMSG_66[0]), 0, 0 },
	{ "mmMP1_SMN_C2PMSG_67", REG_MMIO, 0x0283, 0, &mmMP1_SMN_C2PMSG_67[0], sizeof(mmMP1_SMN_C2PMSG_67)/sizeof(mmMP1_SMN_C2PMSG_67[0]), 0, 0 },
	{ "mmMP1_SMN_C2PMSG_68", REG_MMIO, 0x0284, 0, &mmMP1_SMN_C2PMSG_68[0], sizeof(mmMP1_SMN_C2PMSG_68)/sizeof(mmMP1_SMN_C2PMSG_68[0]), 0, 0 },
	{ "mmMP1_SMN_C2PMSG_69", REG_MMIO, 0x0285, 0, &mmMP1_SMN_C2PMSG_69[0], sizeof(mmMP1_SMN_C2PMSG_69)/sizeof(mmMP1_SMN_C2PMSG_69[0]), 0, 0 },
	{ "mmMP1_SMN_C2PMSG_70", REG_MMIO, 0x0286, 0, &mmMP1_SMN_C2PMSG_70[0], sizeof(mmMP1_SMN_C2PMSG_70)/sizeof(mmMP1_SMN_C2PMSG_70[0]), 0, 0 },
	{ "mmMP1_SMN_C2PMSG_71", REG_MMIO, 0x0287, 0, &mmMP1_SMN_C2PMSG_71[0], sizeof(mmMP1_SMN_C2PMSG_71)/sizeof(mmMP1_SMN_C2PMSG_71[0]), 0, 0 },
	{ "mmMP1_SMN_C2PMSG_72", REG_MMIO, 0x0288, 0, &mmMP1_SMN_C2PMSG_72[0], sizeof(mmMP1_SMN_C2PMSG_72)/sizeof(mmMP1_SMN_C2PMSG_72[0]), 0, 0 },
	{ "mmMP1_SMN_C2PMSG_73", REG_MMIO, 0x0289, 0, &mmMP1_SMN_C2PMSG_73[0], sizeof(mmMP1_SMN_C2PMSG_73)/sizeof(mmMP1_SMN_C2PMSG_73[0]), 0, 0 },
	{ "mmMP1_SMN_C2PMSG_74", REG_MMIO, 0x028a, 0, &mmMP1_SMN_C2PMSG_74[0], sizeof(mmMP1_SMN_C2PMSG_74)/sizeof(mmMP1_SMN_C2PMSG_74[0]), 0, 0 },
	{ "mmMP1_SMN_C2PMSG_75", REG_MMIO, 0x028b, 0, &mmMP1_SMN_C2PMSG_75[0], sizeof(mmMP1_SMN_C2PMSG_75)/sizeof(mmMP1_SMN_C2PMSG_75[0]), 0, 0 },
	{ "mmMP1_SMN_C2PMSG_76", REG_MMIO, 0x028c, 0, &mmMP1_SMN_C2PMSG_76[0], sizeof(mmMP1_SMN_C2PMSG_76)/sizeof(mmMP1_SMN_C2PMSG_76[0]), 0, 0 },
	{ "mmMP1_SMN_C2PMSG_77", REG_MMIO, 0x028d, 0, &mmMP1_SMN_C2PMSG_77[0], sizeof(mmMP1_SMN_C2PMSG_77)/sizeof(mmMP1_SMN_C2PMSG_77[0]), 0, 0 },
	{ "mmMP1_SMN_C2PMSG_78", REG_MMIO, 0x028e, 0, &mmMP1_SMN_C2PMSG_78[0], sizeof(mmMP1_SMN_C2PMSG_78)/sizeof(mmMP1_SMN_C2PMSG_78[0]), 0, 0 },
	{ "mmMP1_SMN_C2PMSG_79", REG_MMIO, 0x028f, 0, &mmMP1_SMN_C2PMSG_79[0], sizeof(mmMP1_SMN_C2PMSG_79)/sizeof(mmMP1_SMN_C2PMSG_79[0]), 0, 0 },
	{ "mmMP1_SMN_C2PMSG_80", REG_MMIO, 0x0290, 0, &mmMP1_SMN_C2PMSG_80[0], sizeof(mmMP1_SMN_C2PMSG_80)/sizeof(mmMP1_SMN_C2PMSG_80[0]), 0, 0 },
	{ "mmMP1_SMN_C2PMSG_81", REG_MMIO, 0x0291, 0, &mmMP1_SMN_C2PMSG_81[0], sizeof(mmMP1_SMN_C2PMSG_81)/sizeof(mmMP1_SMN_C2PMSG_81[0]), 0, 0 },
	{ "mmMP1_SMN_C2PMSG_82", REG_MMIO, 0x0292, 0, &mmMP1_SMN_C2PMSG_82[0], sizeof(mmMP1_SMN_C2PMSG_82)/sizeof(mmMP1_SMN_C2PMSG_82[0]), 0, 0 },
	{ "mmMP1_SMN_C2PMSG_83", REG_MMIO, 0x0293, 0, &mmMP1_SMN_C2PMSG_83[0], sizeof(mmMP1_SMN_C2PMSG_83)/sizeof(mmMP1_SMN_C2PMSG_83[0]), 0, 0 },
	{ "mmMP1_SMN_C2PMSG_84", REG_MMIO, 0x0294, 0, &mmMP1_SMN_C2PMSG_84[0], sizeof(mmMP1_SMN_C2PMSG_84)/sizeof(mmMP1_SMN_C2PMSG_84[0]), 0, 0 },
	{ "mmMP1_SMN_C2PMSG_85", REG_MMIO, 0x0295, 0, &mmMP1_SMN_C2PMSG_85[0], sizeof(mmMP1_SMN_C2PMSG_85)/sizeof(mmMP1_SMN_C2PMSG_85[0]), 0, 0 },
	{ "mmMP1_SMN_C2PMSG_86", REG_MMIO, 0x0296, 0, &mmMP1_SMN_C2PMSG_86[0], sizeof(mmMP1_SMN_C2PMSG_86)/sizeof(mmMP1_SMN_C2PMSG_86[0]), 0, 0 },
	{ "mmMP1_SMN_C2PMSG_87", REG_MMIO, 0x0297, 0, &mmMP1_SMN_C2PMSG_87[0], sizeof(mmMP1_SMN_C2PMSG_87)/sizeof(mmMP1_SMN_C2PMSG_87[0]), 0, 0 },
	{ "mmMP1_SMN_C2PMSG_88", REG_MMIO, 0x0298, 0, &mmMP1_SMN_C2PMSG_88[0], sizeof(mmMP1_SMN_C2PMSG_88)/sizeof(mmMP1_SMN_C2PMSG_88[0]), 0, 0 },
	{ "mmMP1_SMN_C2PMSG_89", REG_MMIO, 0x0299, 0, &mmMP1_SMN_C2PMSG_89[0], sizeof(mmMP1_SMN_C2PMSG_89)/sizeof(mmMP1_SMN_C2PMSG_89[0]), 0, 0 },
	{ "mmMP1_SMN_C2PMSG_90", REG_MMIO, 0x029a, 0, &mmMP1_SMN_C2PMSG_90[0], sizeof(mmMP1_SMN_C2PMSG_90)/sizeof(mmMP1_SMN_C2PMSG_90[0]), 0, 0 },
	{ "mmMP1_SMN_C2PMSG_91", REG_MMIO, 0x029b, 0, &mmMP1_SMN_C2PMSG_91[0], sizeof(mmMP1_SMN_C2PMSG_91)/sizeof(mmMP1_SMN_C2PMSG_91[0]), 0, 0 },
	{ "mmMP1_SMN_C2PMSG_92", REG_MMIO, 0x029c, 0, &mmMP1_SMN_C2PMSG_92[0], sizeof(mmMP1_SMN_C2PMSG_92)/sizeof(mmMP1_SMN_C2PMSG_92[0]), 0, 0 },
	{ "mmMP1_SMN_C2PMSG_93", REG_MMIO, 0x029d, 0, &mmMP1_SMN_C2PMSG_93[0], sizeof(mmMP1_SMN_C2PMSG_93)/sizeof(mmMP1_SMN_C2PMSG_93[0]), 0, 0 },
	{ "mmMP1_SMN_C2PMSG_94", REG_MMIO, 0x029e, 0, &mmMP1_SMN_C2PMSG_94[0], sizeof(mmMP1_SMN_C2PMSG_94)/sizeof(mmMP1_SMN_C2PMSG_94[0]), 0, 0 },
	{ "mmMP1_SMN_C2PMSG_95", REG_MMIO, 0x029f, 0, &mmMP1_SMN_C2PMSG_95[0], sizeof(mmMP1_SMN_C2PMSG_95)/sizeof(mmMP1_SMN_C2PMSG_95[0]), 0, 0 },
	{ "mmMP1_SMN_C2PMSG_96", REG_MMIO, 0x02a0, 0, &mmMP1_SMN_C2PMSG_96[0], sizeof(mmMP1_SMN_C2PMSG_96)/sizeof(mmMP1_SMN_C2PMSG_96[0]), 0, 0 },
	{ "mmMP1_SMN_C2PMSG_97", REG_MMIO, 0x02a1, 0, &mmMP1_SMN_C2PMSG_97[0], sizeof(mmMP1_SMN_C2PMSG_97)/sizeof(mmMP1_SMN_C2PMSG_97[0]), 0, 0 },
	{ "mmMP1_SMN_C2PMSG_98", REG_MMIO, 0x02a2, 0, &mmMP1_SMN_C2PMSG_98[0], sizeof(mmMP1_SMN_C2PMSG_98)/sizeof(mmMP1_SMN_C2PMSG_98[0]), 0, 0 },
	{ "mmMP1_SMN_C2PMSG_99", REG_MMIO, 0x02a3, 0, &mmMP1_SMN_C2PMSG_99[0], sizeof(mmMP1_SMN_C2PMSG_99)/sizeof(mmMP1_SMN_C2PMSG_99[0]), 0, 0 },
	{ "mmMP1_SMN_C2PMSG_100", REG_MMIO, 0x02a4, 0, &mmMP1_SMN_C2PMSG_100[0], sizeof(mmMP1_SMN_C2PMSG_100)/sizeof(mmMP1_SMN_C2PMSG_100[0]), 0, 0 },
	{ "mmMP1_SMN_C2PMSG_101", REG_MMIO, 0x02a5, 0, &mmMP1_SMN_C2PMSG_101[0], sizeof(mmMP1_SMN_C2PMSG_101)/sizeof(mmMP1_SMN_C2PMSG_101[0]), 0, 0 },
	{ "mmMP1_SMN_C2PMSG_102", REG_MMIO, 0x02a6, 0, &mmMP1_SMN_C2PMSG_102[0], sizeof(mmMP1_SMN_C2PMSG_102)/sizeof(mmMP1_SMN_C2PMSG_102[0]), 0, 0 },
	{ "mmMP1_SMN_C2PMSG_103", REG_MMIO, 0x02a7, 0, &mmMP1_SMN_C2PMSG_103[0], sizeof(mmMP1_SMN_C2PMSG_103)/sizeof(mmMP1_SMN_C2PMSG_103[0]), 0, 0 },
	{ "mmMP1_SMN_IH_CREDIT", REG_MMIO, 0x02c1, 0, &mmMP1_SMN_IH_CREDIT[0], sizeof(mmMP1_SMN_IH_CREDIT)/sizeof(mmMP1_SMN_IH_CREDIT[0]), 0, 0 },
	{ "mmMP1_SMN_IH_SW_INT", REG_MMIO, 0x02c2, 0, &mmMP1_SMN_IH_SW_INT[0], sizeof(mmMP1_SMN_IH_SW_INT)/sizeof(mmMP1_SMN_IH_SW_INT[0]), 0, 0 },
	{ "mmMP1_SMN_IH_SW_INT_CTRL", REG_MMIO, 0x02c3, 0, NULL, 0, 0, 0 },
	{ "mmMP1_SMN_FPS_CNT", REG_MMIO, 0x02c4, 0, &mmMP1_SMN_FPS_CNT[0], sizeof(mmMP1_SMN_FPS_CNT)/sizeof(mmMP1_SMN_FPS_CNT[0]), 0, 0 },
