static struct umr_bitfield mmMP0_SMN_C2PMSG_32[] = {
	 { "CONTENT", 0, 31, &umr_bitfield_default },
};
static struct umr_bitfield mmMP0_SMN_C2PMSG_33[] = {
	 { "CONTENT", 0, 31, &umr_bitfield_default },
};
static struct umr_bitfield mmMP0_SMN_C2PMSG_34[] = {
	 { "CONTENT", 0, 31, &umr_bitfield_default },
};
static struct umr_bitfield mmMP0_SMN_C2PMSG_35[] = {
	 { "CONTENT", 0, 31, &umr_bitfield_default },
};
static struct umr_bitfield mmMP0_SMN_C2PMSG_36[] = {
	 { "CONTENT", 0, 31, &umr_bitfield_default },
};
static struct umr_bitfield mmMP0_SMN_C2PMSG_37[] = {
	 { "CONTENT", 0, 31, &umr_bitfield_default },
};
static struct umr_bitfield mmMP0_SMN_C2PMSG_38[] = {
	 { "CONTENT", 0, 31, &umr_bitfield_default },
};
static struct umr_bitfield mmMP0_SMN_C2PMSG_39[] = {
	 { "CONTENT", 0, 31, &umr_bitfield_default },
};
static struct umr_bitfield mmMP0_SMN_C2PMSG_40[] = {
	 { "CONTENT", 0, 31, &umr_bitfield_default },
};
static struct umr_bitfield mmMP0_SMN_C2PMSG_41[] = {
	 { "CONTENT", 0, 31, &umr_bitfield_default },
};
static struct umr_bitfield mmMP0_SMN_C2PMSG_42[] = {
	 { "CONTENT", 0, 31, &umr_bitfield_default },
};
static struct umr_bitfield mmMP0_SMN_C2PMSG_43[] = {
	 { "CONTENT", 0, 31, &umr_bitfield_default },
};
static struct umr_bitfield mmMP0_SMN_C2PMSG_44[] = {
	 { "CONTENT", 0, 31, &umr_bitfield_default },
};
static struct umr_bitfield mmMP0_SMN_C2PMSG_45[] = {
	 { "CONTENT", 0, 31, &umr_bitfield_default },
};
static struct umr_bitfield mmMP0_SMN_C2PMSG_46[] = {
	 { "CONTENT", 0, 31, &umr_bitfield_default },
};
static struct umr_bitfield mmMP0_SMN_C2PMSG_47[] = {
	 { "CONTENT", 0, 31, &umr_bitfield_default },
};
static struct umr_bitfield mmMP0_SMN_C2PMSG_48[] = {
	 { "CONTENT", 0, 31, &umr_bitfield_default },
};
static struct umr_bitfield mmMP0_SMN_C2PMSG_49[] = {
	 { "CONTENT", 0, 31, &umr_bitfield_default },
};
static struct umr_bitfield mmMP0_SMN_C2PMSG_50[] = {
	 { "CONTENT", 0, 31, &umr_bitfield_default },
};
static struct umr_bitfield mmMP0_SMN_C2PMSG_51[] = {
	 { "CONTENT", 0, 31, &umr_bitfield_default },
};
static struct umr_bitfield mmMP0_SMN_C2PMSG_52[] = {
	 { "CONTENT", 0, 31, &umr_bitfield_default },
};
static struct umr_bitfield mmMP0_SMN_C2PMSG_53[] = {
	 { "CONTENT", 0, 31, &umr_bitfield_default },
};
static struct umr_bitfield mmMP0_SMN_C2PMSG_54[] = {
	 { "CONTENT", 0, 31, &umr_bitfield_default },
};
static struct umr_bitfield mmMP0_SMN_C2PMSG_55[] = {
	 { "CONTENT", 0, 31, &umr_bitfield_default },
};
static struct umr_bitfield mmMP0_SMN_C2PMSG_56[] = {
	 { "CONTENT", 0, 31, &umr_bitfield_default },
};
static struct umr_bitfield mmMP0_SMN_C2PMSG_57[] = {
	 { "CONTENT", 0, 31, &umr_bitfield_default },
};
static struct umr_bitfield mmMP0_SMN_C2PMSG_58[] = {
	 { "CONTENT", 0, 31, &umr_bitfield_default },
};
static struct umr_bitfield mmMP0_SMN_C2PMSG_59[] = {
	 { "CONTENT", 0, 31, &umr_bitfield_default },
};
static struct umr_bitfield mmMP0_SMN_C2PMSG_60[] = {
	 { "CONTENT", 0, 31, &umr_bitfield_default },
};
static struct umr_bitfield mmMP0_SMN_C2PMSG_61[] = {
	 { "CONTENT", 0, 31, &umr_bitfield_default },
};
static struct umr_bitfield mmMP0_SMN_C2PMSG_62[] = {
	 { "CONTENT", 0, 31, &umr_bitfield_default },
};
static struct umr_bitfield mmMP0_SMN_C2PMSG_63[] = {
	 { "CONTENT", 0, 31, &umr_bitfield_default },
};
static struct umr_bitfield mmMP0_SMN_C2PMSG_64[] = {
	 { "CONTENT", 0, 31, &umr_bitfield_default },
};
static struct umr_bitfield mmMP0_SMN_C2PMSG_65[] = {
	 { "CONTENT", 0, 31, &umr_bitfield_default },
};
static struct umr_bitfield mmMP0_SMN_C2PMSG_66[] = {
	 { "CONTENT", 0, 31, &umr_bitfield_default },
};
static struct umr_bitfield mmMP0_SMN_C2PMSG_67[] = {
	 { "CONTENT", 0, 31, &umr_bitfield_default },
};
static struct umr_bitfield mmMP0_SMN_C2PMSG_68[] = {
	 { "CONTENT", 0, 31, &umr_bitfield_default },
};
static struct umr_bitfield mmMP0_SMN_C2PMSG_69[] = {
	 { "CONTENT", 0, 31, &umr_bitfield_default },
};
static struct umr_bitfield mmMP0_SMN_C2PMSG_70[] = {
	 { "CONTENT", 0, 31, &umr_bitfield_default },
};
static struct umr_bitfield mmMP0_SMN_C2PMSG_71[] = {
	 { "CONTENT", 0, 31, &umr_bitfield_default },
};
static struct umr_bitfield mmMP0_SMN_C2PMSG_72[] = {
	 { "CONTENT", 0, 31, &umr_bitfield_default },
};
static struct umr_bitfield mmMP0_SMN_C2PMSG_73[] = {
	 { "CONTENT", 0, 31, &umr_bitfield_default },
};
static struct umr_bitfield mmMP0_SMN_C2PMSG_74[] = {
	 { "CONTENT", 0, 31, &umr_bitfield_default },
};
static struct umr_bitfield mmMP0_SMN_C2PMSG_75[] = {
	 { "CONTENT", 0, 31, &umr_bitfield_default },
};
static struct umr_bitfield mmMP0_SMN_C2PMSG_76[] = {
	 { "CONTENT", 0, 31, &umr_bitfield_default },
};
static struct umr_bitfield mmMP0_SMN_C2PMSG_77[] = {
	 { "CONTENT", 0, 31, &umr_bitfield_default },
};
static struct umr_bitfield mmMP0_SMN_C2PMSG_78[] = {
	 { "CONTENT", 0, 31, &umr_bitfield_default },
};
static struct umr_bitfield mmMP0_SMN_C2PMSG_79[] = {
	 { "CONTENT", 0, 31, &umr_bitfield_default },
};
static struct umr_bitfield mmMP0_SMN_C2PMSG_80[] = {
	 { "CONTENT", 0, 31, &umr_bitfield_default },
};
static struct umr_bitfield mmMP0_SMN_C2PMSG_81[] = {
	 { "CONTENT", 0, 31, &umr_bitfield_default },
};
static struct umr_bitfield mmMP0_SMN_C2PMSG_82[] = {
	 { "CONTENT", 0, 31, &umr_bitfield_default },
};
static struct umr_bitfield mmMP0_SMN_C2PMSG_83[] = {
	 { "CONTENT", 0, 31, &umr_bitfield_default },
};
static struct umr_bitfield mmMP0_SMN_C2PMSG_84[] = {
	 { "CONTENT", 0, 31, &umr_bitfield_default },
};
static struct umr_bitfield mmMP0_SMN_C2PMSG_85[] = {
	 { "CONTENT", 0, 31, &umr_bitfield_default },
};
static struct umr_bitfield mmMP0_SMN_C2PMSG_86[] = {
	 { "CONTENT", 0, 31, &umr_bitfield_default },
};
static struct umr_bitfield mmMP0_SMN_C2PMSG_87[] = {
	 { "CONTENT", 0, 31, &umr_bitfield_default },
};
static struct umr_bitfield mmMP0_SMN_C2PMSG_88[] = {
	 { "CONTENT", 0, 31, &umr_bitfield_default },
};
static struct umr_bitfield mmMP0_SMN_C2PMSG_89[] = {
	 { "CONTENT", 0, 31, &umr_bitfield_default },
};
static struct umr_bitfield mmMP0_SMN_C2PMSG_90[] = {
	 { "CONTENT", 0, 31, &umr_bitfield_default },
};
static struct umr_bitfield mmMP0_SMN_C2PMSG_91[] = {
	 { "CONTENT", 0, 31, &umr_bitfield_default },
};
static struct umr_bitfield mmMP0_SMN_C2PMSG_92[] = {
	 { "CONTENT", 0, 31, &umr_bitfield_default },
};
static struct umr_bitfield mmMP0_SMN_C2PMSG_93[] = {
	 { "CONTENT", 0, 31, &umr_bitfield_default },
};
static struct umr_bitfield mmMP0_SMN_C2PMSG_94[] = {
	 { "CONTENT", 0, 31, &umr_bitfield_default },
};
static struct umr_bitfield mmMP0_SMN_C2PMSG_95[] = {
	 { "CONTENT", 0, 31, &umr_bitfield_default },
};
static struct umr_bitfield mmMP0_SMN_C2PMSG_96[] = {
	 { "CONTENT", 0, 31, &umr_bitfield_default },
};
static struct umr_bitfield mmMP0_SMN_C2PMSG_97[] = {
	 { "CONTENT", 0, 31, &umr_bitfield_default },
};
static struct umr_bitfield mmMP0_SMN_C2PMSG_98[] = {
	 { "CONTENT", 0, 31, &umr_bitfield_default },
};
static struct umr_bitfield mmMP0_SMN_C2PMSG_99[] = {
	 { "CONTENT", 0, 31, &umr_bitfield_default },
};
static struct umr_bitfield mmMP0_SMN_C2PMSG_100[] = {
	 { "CONTENT", 0, 31, &umr_bitfield_default },
};
static struct umr_bitfield mmMP0_SMN_C2PMSG_101[] = {
	 { "CONTENT", 0, 31, &umr_bitfield_default },
};
static struct umr_bitfield mmMP0_SMN_C2PMSG_102[] = {
	 { "CONTENT", 0, 31, &umr_bitfield_default },
};
static struct umr_bitfield mmMP0_SMN_C2PMSG_103[] = {
	 { "CONTENT", 0, 31, &umr_bitfield_default },
};
static struct umr_bitfield mmMP0_SMN_IH_CREDIT[] = {
	 { "CREDIT_VALUE", 0, 1, &umr_bitfield_default },
	 { "CLIENT_ID", 16, 23, &umr_bitfield_default },
};
static struct umr_bitfield mmMP0_SMN_IH_SW_INT[] = {
	 { "ID", 0, 7, &umr_bitfield_default },
	 { "VALID", 8, 8, &umr_bitfield_default },
};
static struct umr_bitfield mmMP1_SMN_C2PMSG_32[] = {
	 { "CONTENT", 0, 31, &umr_bitfield_default },
};
static struct umr_bitfield mmMP1_SMN_C2PMSG_33[] = {
	 { "CONTENT", 0, 31, &umr_bitfield_default },
};
static struct umr_bitfield mmMP1_SMN_C2PMSG_34[] = {
	 { "CONTENT", 0, 31, &umr_bitfield_default },
};
static struct umr_bitfield mmMP1_SMN_C2PMSG_35[] = {
	 { "CONTENT", 0, 31, &umr_bitfield_default },
};
static struct umr_bitfield mmMP1_SMN_C2PMSG_36[] = {
	 { "CONTENT", 0, 31, &umr_bitfield_default },
};
static struct umr_bitfield mmMP1_SMN_C2PMSG_37[] = {
	 { "CONTENT", 0, 31, &umr_bitfield_default },
};
static struct umr_bitfield mmMP1_SMN_C2PMSG_38[] = {
	 { "CONTENT", 0, 31, &umr_bitfield_default },
};
static struct umr_bitfield mmMP1_SMN_C2PMSG_39[] = {
	 { "CONTENT", 0, 31, &umr_bitfield_default },
};
static struct umr_bitfield mmMP1_SMN_C2PMSG_40[] = {
	 { "CONTENT", 0, 31, &umr_bitfield_default },
};
static struct umr_bitfield mmMP1_SMN_C2PMSG_41[] = {
	 { "CONTENT", 0, 31, &umr_bitfield_default },
};
static struct umr_bitfield mmMP1_SMN_C2PMSG_42[] = {
	 { "CONTENT", 0, 31, &umr_bitfield_default },
};
static struct umr_bitfield mmMP1_SMN_C2PMSG_43[] = {
	 { "CONTENT", 0, 31, &umr_bitfield_default },
};
static struct umr_bitfield mmMP1_SMN_C2PMSG_44[] = {
	 { "CONTENT", 0, 31, &umr_bitfield_default },
};
static struct umr_bitfield mmMP1_SMN_C2PMSG_45[] = {
	 { "CONTENT", 0, 31, &umr_bitfield_default },
};
static struct umr_bitfield mmMP1_SMN_C2PMSG_46[] = {
	 { "CONTENT", 0, 31, &umr_bitfield_default },
};
static struct umr_bitfield mmMP1_SMN_C2PMSG_47[] = {
	 { "CONTENT", 0, 31, &umr_bitfield_default },
};
static struct umr_bitfield mmMP1_SMN_C2PMSG_48[] = {
	 { "CONTENT", 0, 31, &umr_bitfield_default },
};
static struct umr_bitfield mmMP1_SMN_C2PMSG_49[] = {
	 { "CONTENT", 0, 31, &umr_bitfield_default },
};
static struct umr_bitfield mmMP1_SMN_C2PMSG_50[] = {
	 { "CONTENT", 0, 31, &umr_bitfield_default },
};
static struct umr_bitfield mmMP1_SMN_C2PMSG_51[] = {
	 { "CONTENT", 0, 31, &umr_bitfield_default },
};
static struct umr_bitfield mmMP1_SMN_C2PMSG_52[] = {
	 { "CONTENT", 0, 31, &umr_bitfield_default },
};
static struct umr_bitfield mmMP1_SMN_C2PMSG_53[] = {
	 { "CONTENT", 0, 31, &umr_bitfield_default },
};
static struct umr_bitfield mmMP1_SMN_C2PMSG_54[] = {
	 { "CONTENT", 0, 31, &umr_bitfield_default },
};
static struct umr_bitfield mmMP1_SMN_C2PMSG_55[] = {
	 { "CONTENT", 0, 31, &umr_bitfield_default },
};
static struct umr_bitfield mmMP1_SMN_C2PMSG_56[] = {
	 { "CONTENT", 0, 31, &umr_bitfield_default },
};
static struct umr_bitfield mmMP1_SMN_C2PMSG_57[] = {
	 { "CONTENT", 0, 31, &umr_bitfield_default },
};
static struct umr_bitfield mmMP1_SMN_C2PMSG_58[] = {
	 { "CONTENT", 0, 31, &umr_bitfield_default },
};
static struct umr_bitfield mmMP1_SMN_C2PMSG_59[] = {
	 { "CONTENT", 0, 31, &umr_bitfield_default },
};
static struct umr_bitfield mmMP1_SMN_C2PMSG_60[] = {
	 { "CONTENT", 0, 31, &umr_bitfield_default },
};
static struct umr_bitfield mmMP1_SMN_C2PMSG_61[] = {
	 { "CONTENT", 0, 31, &umr_bitfield_default },
};
static struct umr_bitfield mmMP1_SMN_C2PMSG_62[] = {
	 { "CONTENT", 0, 31, &umr_bitfield_default },
};
static struct umr_bitfield mmMP1_SMN_C2PMSG_63[] = {
	 { "CONTENT", 0, 31, &umr_bitfield_default },
};
static struct umr_bitfield mmMP1_SMN_C2PMSG_64[] = {
	 { "CONTENT", 0, 31, &umr_bitfield_default },
};
static struct umr_bitfield mmMP1_SMN_C2PMSG_65[] = {
	 { "CONTENT", 0, 31, &umr_bitfield_default },
};
static struct umr_bitfield mmMP1_SMN_C2PMSG_66[] = {
	 { "CONTENT", 0, 31, &umr_bitfield_default },
};
static struct umr_bitfield mmMP1_SMN_C2PMSG_67[] = {
	 { "CONTENT", 0, 31, &umr_bitfield_default },
};
static struct umr_bitfield mmMP1_SMN_C2PMSG_68[] = {
	 { "CONTENT", 0, 31, &umr_bitfield_default },
};
static struct umr_bitfield mmMP1_SMN_C2PMSG_69[] = {
	 { "CONTENT", 0, 31, &umr_bitfield_default },
};
static struct umr_bitfield mmMP1_SMN_C2PMSG_70[] = {
	 { "CONTENT", 0, 31, &umr_bitfield_default },
};
static struct umr_bitfield mmMP1_SMN_C2PMSG_71[] = {
	 { "CONTENT", 0, 31, &umr_bitfield_default },
};
static struct umr_bitfield mmMP1_SMN_C2PMSG_72[] = {
	 { "CONTENT", 0, 31, &umr_bitfield_default },
};
static struct umr_bitfield mmMP1_SMN_C2PMSG_73[] = {
	 { "CONTENT", 0, 31, &umr_bitfield_default },
};
static struct umr_bitfield mmMP1_SMN_C2PMSG_74[] = {
	 { "CONTENT", 0, 31, &umr_bitfield_default },
};
static struct umr_bitfield mmMP1_SMN_C2PMSG_75[] = {
	 { "CONTENT", 0, 31, &umr_bitfield_default },
};
static struct umr_bitfield mmMP1_SMN_C2PMSG_76[] = {
	 { "CONTENT", 0, 31, &umr_bitfield_default },
};
static struct umr_bitfield mmMP1_SMN_C2PMSG_77[] = {
	 { "CONTENT", 0, 31, &umr_bitfield_default },
};
static struct umr_bitfield mmMP1_SMN_C2PMSG_78[] = {
	 { "CONTENT", 0, 31, &umr_bitfield_default },
};
static struct umr_bitfield mmMP1_SMN_C2PMSG_79[] = {
	 { "CONTENT", 0, 31, &umr_bitfield_default },
};
static struct umr_bitfield mmMP1_SMN_C2PMSG_80[] = {
	 { "CONTENT", 0, 31, &umr_bitfield_default },
};
static struct umr_bitfield mmMP1_SMN_C2PMSG_81[] = {
	 { "CONTENT", 0, 31, &umr_bitfield_default },
};
static struct umr_bitfield mmMP1_SMN_C2PMSG_82[] = {
	 { "CONTENT", 0, 31, &umr_bitfield_default },
};
static struct umr_bitfield mmMP1_SMN_C2PMSG_83[] = {
	 { "CONTENT", 0, 31, &umr_bitfield_default },
};
static struct umr_bitfield mmMP1_SMN_C2PMSG_84[] = {
	 { "CONTENT", 0, 31, &umr_bitfield_default },
};
static struct umr_bitfield mmMP1_SMN_C2PMSG_85[] = {
	 { "CONTENT", 0, 31, &umr_bitfield_default },
};
static struct umr_bitfield mmMP1_SMN_C2PMSG_86[] = {
	 { "CONTENT", 0, 31, &umr_bitfield_default },
};
static struct umr_bitfield mmMP1_SMN_C2PMSG_87[] = {
	 { "CONTENT", 0, 31, &umr_bitfield_default },
};
static struct umr_bitfield mmMP1_SMN_C2PMSG_88[] = {
	 { "CONTENT", 0, 31, &umr_bitfield_default },
};
static struct umr_bitfield mmMP1_SMN_C2PMSG_89[] = {
	 { "CONTENT", 0, 31, &umr_bitfield_default },
};
static struct umr_bitfield mmMP1_SMN_C2PMSG_90[] = {
	 { "CONTENT", 0, 31, &umr_bitfield_default },
};
static struct umr_bitfield mmMP1_SMN_C2PMSG_91[] = {
	 { "CONTENT", 0, 31, &umr_bitfield_default },
};
static struct umr_bitfield mmMP1_SMN_C2PMSG_92[] = {
	 { "CONTENT", 0, 31, &umr_bitfield_default },
};
static struct umr_bitfield mmMP1_SMN_C2PMSG_93[] = {
	 { "CONTENT", 0, 31, &umr_bitfield_default },
};
static struct umr_bitfield mmMP1_SMN_C2PMSG_94[] = {
	 { "CONTENT", 0, 31, &umr_bitfield_default },
};
static struct umr_bitfield mmMP1_SMN_C2PMSG_95[] = {
	 { "CONTENT", 0, 31, &umr_bitfield_default },
};
static struct umr_bitfield mmMP1_SMN_C2PMSG_96[] = {
	 { "CONTENT", 0, 31, &umr_bitfield_default },
};
static struct umr_bitfield mmMP1_SMN_C2PMSG_97[] = {
	 { "CONTENT", 0, 31, &umr_bitfield_default },
};
static struct umr_bitfield mmMP1_SMN_C2PMSG_98[] = {
	 { "CONTENT", 0, 31, &umr_bitfield_default },
};
static struct umr_bitfield mmMP1_SMN_C2PMSG_99[] = {
	 { "CONTENT", 0, 31, &umr_bitfield_default },
};
static struct umr_bitfield mmMP1_SMN_C2PMSG_100[] = {
	 { "CONTENT", 0, 31, &umr_bitfield_default },
};
static struct umr_bitfield mmMP1_SMN_C2PMSG_101[] = {
	 { "CONTENT", 0, 31, &umr_bitfield_default },
};
static struct umr_bitfield mmMP1_SMN_C2PMSG_102[] = {
	 { "CONTENT", 0, 31, &umr_bitfield_default },
};
static struct umr_bitfield mmMP1_SMN_C2PMSG_103[] = {
	 { "CONTENT", 0, 31, &umr_bitfield_default },
};
static struct umr_bitfield mmMP1_SMN_IH_CREDIT[] = {
	 { "CREDIT_VALUE", 0, 1, &umr_bitfield_default },
	 { "CLIENT_ID", 16, 23, &umr_bitfield_default },
};
static struct umr_bitfield mmMP1_SMN_IH_SW_INT[] = {
	 { "ID", 0, 7, &umr_bitfield_default },
	 { "VALID", 8, 8, &umr_bitfield_default },
};
static struct umr_bitfield mmMP1_SMN_FPS_CNT[] = {
	 { "COUNT", 0, 31, &umr_bitfield_default },
};
