	{ "mmCG_MULT_THERMAL_STATUS", REG_MMIO, 0x005f, 0, &mmCG_MULT_THERMAL_STATUS[0], sizeof(mmCG_MULT_THERMAL_STATUS)/sizeof(mmCG_MULT_THERMAL_STATUS[0]), 0, 0 },
	{ "mmCG_FDO_CTRL0", REG_MMIO, 0x0067, 0, &mmCG_FDO_CTRL0[0], sizeof(mmCG_FDO_CTRL0)/sizeof(mmCG_FDO_CTRL0[0]), 0, 0 },
	{ "mmCG_FDO_CTRL1", REG_MMIO, 0x0068, 0, &mmCG_FDO_CTRL1[0], sizeof(mmCG_FDO_CTRL1)/sizeof(mmCG_FDO_CTRL1[0]), 0, 0 },
	{ "mmCG_FDO_CTRL2", REG_MMIO, 0x0069, 0, &mmCG_FDO_CTRL2[0], sizeof(mmCG_FDO_CTRL2)/sizeof(mmCG_FDO_CTRL2[0]), 0, 0 },
	{ "mmCG_TACH_CTRL", REG_MMIO, 0x006a, 0, &mmCG_TACH_CTRL[0], sizeof(mmCG_TACH_CTRL)/sizeof(mmCG_TACH_CTRL[0]), 0, 0 },
	{ "mmTHM_THERMAL_INT_ENA", REG_MMIO, 0x000a, 0, &mmTHM_THERMAL_INT_ENA[0], sizeof(mmTHM_THERMAL_INT_ENA)/sizeof(mmTHM_THERMAL_INT_ENA[0]), 0, 0 },
	{ "mmTHM_THERMAL_INT_CTRL", REG_MMIO, 0x000b, 0, &mmTHM_THERMAL_INT_CTRL[0], sizeof(mmTHM_THERMAL_INT_CTRL)/sizeof(mmTHM_THERMAL_INT_CTRL[0]), 0, 0 },
	{ "mmTHM_TCON_THERM_TRIP", REG_MMIO, 0x0002, 0, &mmTHM_TCON_THERM_TRIP[0], sizeof(mmTHM_TCON_THERM_TRIP)/sizeof(mmTHM_TCON_THERM_TRIP[0]), 0, 0 },
	{ "mmTHM_BACO_CNTL", REG_MMIO, 0x0081, 0, NULL, 0, 0, 0 },
