	{ "ATHUB",
		{
			{ 0x00000C00, 0, 0, 0, 0,  },
			{ 0, 0, 0, 0, 0,  },
			{ 0, 0, 0, 0, 0,  },
			{ 0, 0, 0, 0, 0,  },
			{ 0, 0, 0, 0, 0,  },
		}
	},
	{ "CLK",
		{
			{ 0x00016C00, 0, 0, 0, 0,  },
			{ 0x00016E00, 0, 0, 0, 0,  },
			{ 0x00017000, 0, 0, 0, 0,  },
			{ 0x00017200, 0, 0, 0, 0,  },
			{ 0x00017E00, 0, 0, 0, 0,  },
		}
	},
	{ "DCN",
		{
			{ 0x00000012, 0, 0, 0, 0,  },
			{ 0x000000C0, 0, 0, 0, 0,  },
			{ 0x000034C0, 0, 0, 0, 0,  },
			{ 0x00009000, 0, 0, 0, 0,  },
			{ 0, 0, 0, 0, 0,  },
		}
	},
	{ "DF",
		{
			{ 0x00007000, 0, 0, 0, 0,  },
			{ 0, 0, 0, 0, 0,  },
			{ 0, 0, 0, 0, 0,  },
			{ 0, 0, 0, 0, 0,  },
			{ 0, 0, 0, 0, 0,  },
		}
	},
	{ "FUSE",
		{
			{ 0x00017400, 0, 0, 0, 0,  },
			{ 0, 0, 0, 0, 0,  },
			{ 0, 0, 0, 0, 0,  },
			{ 0, 0, 0, 0, 0,  },
			{ 0, 0, 0, 0, 0,  },
		}
	},
	{ "GC",
		{
			{ 0x00001260, 0, 0, 0, 0,  },
			{ 0x0000A000, 0, 0, 0, 0,  },
			{ 0, 0, 0, 0, 0,  },
			{ 0, 0, 0, 0, 0,  },
			{ 0, 0, 0, 0, 0,  },
		}
	},
	{ "HDP",
		{
			{ 0x00000F20, 0, 0, 0, 0,  },
			{ 0, 0, 0, 0, 0,  },
			{ 0, 0, 0, 0, 0,  },
			{ 0, 0, 0, 0, 0,  },
			{ 0, 0, 0, 0, 0,  },
		}
	},
	{ "MMHUB",
		{
			{ 0x0001A000, 0, 0, 0, 0,  },
			{ 0, 0, 0, 0, 0,  },
			{ 0, 0, 0, 0, 0,  },
			{ 0, 0, 0, 0, 0,  },
			{ 0, 0, 0, 0, 0,  },
		}
	},
	{ "MP0",
		{
			{ 0x00016000, 0, 0, 0, 0,  },
			{ 0, 0, 0, 0, 0,  },
			{ 0, 0, 0, 0, 0,  },
			{ 0, 0, 0, 0, 0,  },
			{ 0, 0, 0, 0, 0,  },
		}
	},
	{ "MP1",
		{
			{ 0x00016000, 0, 0, 0, 0,  },
			{ 0, 0, 0, 0, 0,  },
			{ 0, 0, 0, 0, 0,  },
			{ 0, 0, 0, 0, 0,  },
			{ 0, 0, 0, 0, 0,  },
		}
	},
	{ "NBIO",
		{
			{ 0x00000000, 0, 0, 0, 0,  },
			{ 0x00000014, 0, 0, 0, 0,  },
			{ 0x00000D20, 0, 0, 0, 0,  },
			{ 0x00010400, 0, 0, 0, 0,  },
			{ 0, 0, 0, 0, 0,  },
		}
	},
	{ "OSSSYS",
		{
			{ 0x000010A0, 0, 0, 0, 0,  },
			{ 0, 0, 0, 0, 0,  },
			{ 0, 0, 0, 0, 0,  },
			{ 0, 0, 0, 0, 0,  },
			{ 0, 0, 0, 0, 0,  },
		}
	},
	{ "RSMU",
		{
			{ 0x00012000, 0, 0, 0, 0,  },
			{ 0, 0, 0, 0, 0,  },
			{ 0, 0, 0, 0, 0,  },
			{ 0, 0, 0, 0, 0,  },
			{ 0, 0, 0, 0, 0,  },
		}
	},
	{ "SMUIO",
		{
			{ 0x00016800, 0, 0, 0, 0,  },
			{ 0x00016A00, 0, 0, 0, 0,  },
			{ 0, 0, 0, 0, 0,  },
			{ 0, 0, 0, 0, 0,  },
			{ 0, 0, 0, 0, 0,  },
		}
	},
	{ "THM",
		{
			{ 0x00016600, 0, 0, 0, 0,  },
			{ 0, 0, 0, 0, 0,  },
			{ 0, 0, 0, 0, 0,  },
			{ 0, 0, 0, 0, 0,  },
			{ 0, 0, 0, 0, 0,  },
		}
	},
	{ "UMC",
		{
			{ 0x00014000, 0, 0, 0, 0,  },
			{ 0, 0, 0, 0, 0,  },
			{ 0, 0, 0, 0, 0,  },
			{ 0, 0, 0, 0, 0,  },
			{ 0, 0, 0, 0, 0,  },
		}
	},
	{ "VCN",
		{
			{ 0x00007800, 0, 0, 0, 0,  },
			{ 0x00007E00, 0, 0, 0, 0,  },
			{ 0, 0, 0, 0, 0,  },
			{ 0, 0, 0, 0, 0,  },
			{ 0, 0, 0, 0, 0,  },
		}
	},
